<svg xmlns:rdf="http://www.w3.org/1999/02/22-rdf-syntax-ns#" xmlns="http://www.w3.org/2000/svg" height="512" width="512" version="1.1" xmlns:cc="http://creativecommons.org/ns#" xmlns:dc="http://purl.org/dc/elements/1.1/" viewBox="0 0 511.99999 511.99999">
	<g transform="translate(0 -540.36)">
		<path d="m302.26 1006.5c-2.72-2.72-3.0538-3.7939-3.6844-11.855-1.1174-14.284 0.82969-23.789 5.3712-26.22 1.2536-0.67093 21.718-1.0357 58.74-1.047 62.643-0.0192 65.165-0.21925 77.316-6.1338 7.7065-3.7513 19.102-14.762 23.217-22.434 6.03-11.27 5.78-5.18 5.78-142.45 0-137.06 0.23097-131.29-5.699-142.19-3.5884-6.5931-12.179-15.883-18.347-19.842-2.8029-1.7986-8.1016-4.4376-11.775-5.8644l-6.6787-2.5942-60.472-0.30679-60.472-0.30679-3.166-2.4148c-3.1159-2.3766-3.1766-2.5853-3.8353-13.199-0.83539-13.46 0.41427-20.883 4.0538-24.082l2.6143-2.2974 64.139 0.35795c61.106 0.34103 64.47 0.45479 71.139 2.4054 17.85 5.2209 31.609 13.524 44.279 26.722 12.533 13.055 19.54 25.143 24.072 41.532l2.6488 9.578v132.5 132.5l-2.6488 9.578c-4.5322 16.389-11.538 28.477-24.072 41.532-12.395 12.911-27.037 21.757-44.257 26.738-6.6678 1.9287-10.258 2.0492-71.148 2.3891l-64.126 0.3579-2.991-2.9909zm-114.57-8.16c-5.3688-0.964-11.631-5.7104-14.364-10.887l-2.33-4.4v-50.843-50.843l-77.25-0.022c-72.984-0.02-77.475-0.12-81.321-1.87-4.8224-2.19-10.083-8.22-11.444-13.11-1.3071-4.6976-1.3071-135.3 0-140 1.3612-4.892 6.6216-10.917 11.444-13.107 3.8459-1.7468 8.3358-1.8501 81.295-1.8708l77.224-0.022 0.27604-51.824 0.27605-51.824 2.7276-4.1207c6.082-9.1883 18.873-12.337 28.014-6.8966 5.4993 3.2731 188.01 186.07 190.26 190.56 2.2253 4.443 2.2253 13.77 0 18.213-2.2211 4.4346-184.78 187.32-190 190.34-4.6336 2.6818-9.4217 3.501-14.809 2.5336z"/>
	</g>
</svg>
