<svg xmlns:rdf="http://www.w3.org/1999/02/22-rdf-syntax-ns#" xmlns="http://www.w3.org/2000/svg" height="512" width="512" version="1.1" xmlns:cc="http://creativecommons.org/ns#" xmlns:dc="http://purl.org/dc/elements/1.1/" viewBox="0 0 511.99999 511.99999">
	<g transform="translate(0 -540.36)">
		<path d="m7 1049.6c-1.9733-0.9857-4.3608-3.3562-5.4735-5.4341l-1.9735-3.6857 13.433-60.564c7.388-33.31 13.678-60.564 13.977-60.564 0.88287 0 103.49 102.89 102.99 103.27-0.48508 0.3723-118.11 28.805-118.96 28.756-0.275-0.016-2.075-0.816-4-1.7777zm99.5-107.24-51.995-52 131.5-131.5c72.323-72.324 131.95-131.5 132.5-131.5 0.55278 0 24.178 23.176 52.499 51.502l51.5 51.51-132 132-132 132-52-52.01zm291-291.03-52-52.02l25-24.769c21.325-21.128 25.956-25.232 31.504-27.914 13.041-6.3066 27.962-6.3479 40.996-0.11368 5.6631 2.7086 10.131 6.7295 34.699 31.23 32.887 32.796 33.722 33.999 33.772 48.621 0.0257 7.5615-0.33266 9.2635-3.246 15.416-2.9307 6.1887-6.1306 9.7885-30.444 34.25-14.943 15.034-27.421 27.334-27.729 27.334-0.30779 0-23.958-23.412-52.556-52.027z"/>
	</g>
</svg>
