<?xml version="1.0" encoding="UTF-8" standalone="no"?>
<!-- Created with Inkscape (http://www.inkscape.org/) -->

<svg
   xmlns:dc="http://purl.org/dc/elements/1.1/"
   xmlns:cc="http://creativecommons.org/ns#"
   xmlns:rdf="http://www.w3.org/1999/02/22-rdf-syntax-ns#"
   xmlns:svg="http://www.w3.org/2000/svg"
   xmlns="http://www.w3.org/2000/svg"
   xmlns:sodipodi="http://sodipodi.sourceforge.net/DTD/sodipodi-0.dtd"
   xmlns:inkscape="http://www.inkscape.org/namespaces/inkscape"
   width="512"
   height="512"
   viewBox="0 0 511.99999 511.99999"
   id="svg2"
   version="1.1"
   inkscape:version="0.91 r13725"
   sodipodi:docname="star-full.svg">
  <defs
     id="defs4" />
  <sodipodi:namedview
     id="base"
     pagecolor="#ffffff"
     bordercolor="#666666"
     borderopacity="1.0"
     inkscape:pageopacity="0.0"
     inkscape:pageshadow="2"
     inkscape:zoom="0.35"
     inkscape:cx="-126.42857"
     inkscape:cy="-4.0842833"
     inkscape:document-units="px"
     inkscape:current-layer="layer1"
     showgrid="false"
     units="px"
     inkscape:window-width="1858"
     inkscape:window-height="1057"
     inkscape:window-x="54"
     inkscape:window-y="-8"
     inkscape:window-maximized="1" />
  <metadata
     id="metadata7">
    <rdf:RDF>
      <cc:Work
         rdf:about="">
        <dc:format>image/svg+xml</dc:format>
        <dc:type
           rdf:resource="http://purl.org/dc/dcmitype/StillImage" />
        <dc:title></dc:title>
      </cc:Work>
    </rdf:RDF>
  </metadata>
  <g
     inkscape:label="Layer 1"
     inkscape:groupmode="layer"
     id="layer1"
     transform="translate(0,-540.36219)">
    <path
       style="fill:#000000"
       d="m 104.45863,1039.4825 c -5.081554,-2.3082 -9.080475,-7.0022 -10.52015,-12.3488 -1.025975,-3.8102 0.238098,-10.1557 15.97741,-80.20452 9.40035,-41.83685 17.08987,-77.20915 17.08782,-78.60511 -0.0108,-7.39474 -2.09047,-9.40831 -62.97573,-60.97463 C 31.868368,780.1121 4.5418251,756.32213 3.3023277,754.48284 -2.6933857,745.5858 0.13989007,733.86421 9.5406735,728.67408 c 3.5823925,-1.97783 11.3629305,-2.87453 80.9612985,-9.3307 84.903158,-7.87591 83.288488,-7.60332 87.977118,-14.85235 1.29091,-1.99587 15.02172,-34.67885 30.51289,-72.62885 15.49118,-37.95 29.22559,-70.63298 30.52091,-72.62885 2.80608,-4.32366 9.56069,-7.87115 14.98711,-7.87115 4.86711,0 11.90701,3.35026 14.36412,6.83583 1.03294,1.46529 15.53082,34.35473 32.2175,73.08764 16.68669,38.73291 31.34149,71.61435 32.56622,73.06986 4.82407,5.73308 4.42231,5.67842 87.35216,11.88464 81.69119,6.11353 80.753,5.98993 85.70227,11.29066 2.90187,3.10794 5.29773,8.97965 5.29773,12.98353 0,7.86898 -1.3666,9.24698 -61.28246,61.79327 -36.72334,32.20641 -58.27142,51.79726 -60.15985,54.69547 -2.24467,3.44495 -2.92436,5.62333 -2.86663,9.18736 0.0416,2.56946 8.0659,37.07174 17.83173,76.67174 11.47871,46.54562 17.78927,73.97912 17.84997,77.59822 0.18237,10.8722 -8.1928,18.5478 -19.29421,17.6826 -5.25877,-0.4098 -9.27589,-2.6314 -70.07855,-38.75459 -35.475,-21.0759 -66.3,-39.14388 -68.5,-40.15106 -4.78028,-2.18847 -9.40458,-2.36323 -13.78212,-0.52086 -1.76983,0.74486 -31.79288,19.03706 -66.71788,40.64932 -34.925,21.61229 -64.94805,39.90279 -66.71788,40.64569 -4.382,1.8393 -8.99864,1.6626 -13.82349,-0.529 z"
       id="path3436"
       inkscape:connector-curvature="0" />
  </g>
</svg>
