<svg xmlns:rdf="http://www.w3.org/1999/02/22-rdf-syntax-ns#" xmlns="http://www.w3.org/2000/svg" height="512" width="512" version="1.1" xmlns:cc="http://creativecommons.org/ns#" xmlns:dc="http://purl.org/dc/elements/1.1/" viewBox="0 0 511.99999 511.99999">
	<g transform="translate(0 -540.36)">
		<path d="m16.241 1046.8c-13.028-6.4923-19.102-21.238-14.388-34.933 1.136-3.3 15.076-35.25 30.977-71 23.303-52.391 29.686-65.873 32.905-69.5 3.4563-3.8948 10.388-7.8284 51.542-29.25 26.152-13.612 48.119-24.75 48.817-24.75 0.69714 0 4.9804 2.496 9.5183 5.5468 16.638 11.185 37.329 19.652 56.388 23.073 12.678 2.2761 35.322 2.2761 48 0 19.069-3.4234 39.14-11.6 55.636-22.664 4.875-3.2697 9.4677-5.9474 10.206-5.9505 0.73844-0.003 22.563 11.024 48.5 24.505 41.366 21.5 47.71 25.106 51.657 29.361 3.9761 4.2852 7.8733 12.463 33.474 70.239 15.936 35.964 29.821 67.864 30.857 70.889 4.4943 13.129-1.8353 28.086-14.572 34.433l-5.1518 2.5673h-234.61-234.61l-5.1518-2.5673zm225.26-236.47c-16.021-2.4748-33.978-10.176-47.599-20.414-36.718-27.598-55.562-74.429-51.928-129.06 1.185-17.814 2.0231-23.438 5.6623-38 12.151-48.622 45.149-75.904 95.929-79.314 64.905-4.3586 106.76 23.12 120.8 79.314 3.6393 14.562 4.4773 20.186 5.6623 38 3.1886 47.932-10.538 88.968-39.479 118.03-14.832 14.893-31.268 24.373-51.218 29.541-9.0514 2.3448-28.598 3.327-37.83 1.9008z"/>
	</g>
</svg>
