<svg xmlns:rdf="http://www.w3.org/1999/02/22-rdf-syntax-ns#" xmlns="http://www.w3.org/2000/svg" height="512" width="512" version="1.1" xmlns:cc="http://creativecommons.org/ns#" xmlns:dc="http://purl.org/dc/elements/1.1/" viewBox="0 0 512.00001 512.00001">
	<g transform="translate(0 -540.36)">
		<path d="m0.034888 1012.6c0.044565-23.94 1.3663-31.67 7.5642-44.24 7.6809-15.57 13.255-20.28 54.28-45.88 28.151-17.56 34.742-22.1 36.943-25.42 2.5416-3.836 2.6947-4.7735 3.0021-18.379l0.32392-14.337-6.2434-7.741c-11.07-13.726-19.086-27.836-23.428-41.241-0.98049-3.0271-3.4776-7.4358-5.5539-9.8055-6.1699-7.0417-6.9257-10.724-6.9006-33.623 0.02334-21.334 0.49766-23.875 5.8635-31.411 1.7229-2.4196 1.9619-5.0345 2.3471-25.677 0.4011-21.494 0.60568-23.567 3.157-31.983 8.1518-26.893 25.944-45.843 51.609-54.97 12.171-4.3279 21.975-5.8055 39.002-5.8775 15.294-0.0647 23.49 0.91845 33.542 4.0238l5.0419 1.5575-0.38379 30.633c-0.37751 30.131-0.42427 30.717-2.851 35.764-4.6766 9.7259-5.3254 14.342-5.3223 37.869 0.004 28.825 1.2454 34.489 10.109 46.116 2.2652 2.9712 5.1074 8.6305 6.7802 13.5 5.1758 15.068 12.362 29.902 20.63 42.586l5.45 8.37-0.006 11.216c-0.007 13.976-1.0288 17.96-5.2739 20.565-1.7713 1.0866-19.87 11.058-40.22 22.159-42.694 23.289-47.57 26.355-56.796 35.709-12.277 12.447-17.699 22.343-24.265 44.282-0.41148 1.375-1.0161 14.2-1.3436 28.5l-0.59503 26-53.25 0.2587-53.25 0.2588 0.034888-18.759zm119.97-4.2c0-12.623 0.4867-25.335 1.0816-28.25 4.1593-20.379 16.885-39.108 33.918-49.918 3.025-1.9198 22.798-12.904 43.94-24.41 22.104-12.029 39.847-22.326 41.751-24.23 5.6894-5.6894 6.5546-8.9827 7.0251-26.742l0.4239-16-6.6466-10c-8.3005-12.488-15.137-26.51-20.425-41.89-3.0299-8.8124-5.0204-12.922-7.6908-15.878-7.3149-8.0967-7.8394-10.433-8.1941-36.498-0.34567-25.399 0.34651-30.316 5.2945-37.607l2.5221-3.7165v-28.868c0-21.433 0.38403-30.875 1.4912-36.661 6.7951-35.515 32.533-57.573 74.651-63.978 12.302-1.8707 38.715-2.103 50.665-0.44566 25.267 3.5044 42.731 11.346 56.693 25.456 9.2414 9.3395 13.478 16.057 17.862 28.324l3.1311 8.7612 0.32545 33.248 0.32546 33.248 3.3848 5.621c1.8616 3.0916 3.7418 7.7049 4.1782 10.252 1.3084 7.6365 0.94462 46.059-0.4808 50.788-1.8923 6.2786-7.0801 13.289-13.342 18.029-4.7783 3.6172-5.9602 5.1893-7.9185 10.533-4.0216 10.973-12.66 27.274-21.061 39.741l-8.138 12.078 0.4708 16.231c0.51085 17.612 1.3222 20.906 6.5178 26.468 1.902 2.0361 16.806 10.036 44.306 23.781 22.792 11.392 44.59 22.57 48.44 24.84 9.095 5.3621 21.101 17.298 26.33 26.177 8.78 14.92 11.17 26.78 11.17 55.51v18.928h-196-196v-22.951z"/>
	</g>
</svg>
