<svg xmlns:rdf="http://www.w3.org/1999/02/22-rdf-syntax-ns#" xmlns="http://www.w3.org/2000/svg" height="512" width="512" version="1.1" xmlns:cc="http://creativecommons.org/ns#" xmlns:dc="http://purl.org/dc/elements/1.1/" viewBox="0 0 512.00001 512.00001">
	<g transform="translate(0 -540.36)">
		<path d="m88.02 1010.8c-7.238-3.4-15.333-11.82-17.379-18.13-0.857-2.64-16.961-72.31-35.786-154.81-25.428-111.43-34.24-151.67-34.275-156.5-0.0862-11.84 6.319-20.17 18.161-23.61 6.3892-1.8574 26.41-1.6425 28.352 0.30434 1.4864 1.4896 2.3638 10.057 1.501 14.656-0.35697 1.9028-1.4243 3.809-2.3718 4.2359-0.94754 0.42696-6.6728 1.0329-12.723 1.3466-10.927 0.56646-11.002 0.58755-11.301 3.1645-0.45376 3.9058 44.249 190.31 46.682 194.66 1.8884 3.3744 2.2369-7.3033 1.1832-36.251-1.348-37.033-1.348-98.755 0.000034-175.89 0.97845-55.99 1.2175-61.283 2.9797-65.99 2.7136-7.2474 7.0328-11.999 14.131-15.546l6.1453-3.0708h198.18 198.18l6.182 3.0892c4.1514 2.0745 7.3265 4.588 9.6662 7.6523 6.9341 9.0813 6.4712-5.6716 6.4712 206.26s0.46286 197.18-6.4712 206.26c-2.3398 3.0643-5.5148 5.5778-9.6662 7.6523l-6.182 3.0892-198.09-0.01-198.09-0.01-5.4796-2.5506zm399.67-20.843 2.8058-2.4134v-191.17-191.17l-2.8058-2.4134-2.8058-2.4134h-192.9c-142.05 0-193.56 0.29995-195.39 1.1378-1.3735 0.62581-2.9697 2.493-3.5471 4.1492-1.4718 4.2221-1.4689 377.21 0.003 381.43 0.57902 1.661 2.0415 3.4977 3.25 4.0816 1.525 0.73682 61.301 1.0823 195.39 1.1293l193.19 0.0677 2.8058-2.4134zm-359.04-52.43c-1.2501-1.3814-1.6512-3.7666-1.6397-9.75 0.008-4.3567 0.34592-8.4164 0.75-9.0216 2.1805-3.2656 4.9903-3.3997 71.214-3.3997h66.111l2.4545 2.4546c2.1592 2.1591 2.4546 3.3358 2.4546 9.7775 0 5.0094-0.49182 8.0251-1.5567 9.5454l-1.5567 2.2225h-68.288c-64.887 0-68.371-0.0911-69.943-1.8287zm184.9-0.39377c-1.6381-2.3387-2.2356-16.215-0.79139-18.378 2.1805-3.2656 4.9903-3.3997 71.214-3.3997h66.111l2.4545 2.4546c2.1592 2.1591 2.4546 3.3358 2.4546 9.7775 0 5.0094-0.49182 8.0251-1.5567 9.5454l-1.5567 2.2225h-68.387-68.387l-1.5567-2.2225zm-184.55-64.78c-1.6667-1.6667-2-3.3333-2-10 0-13.264-7.5284-12 71.5-12s71.5-1.2635 71.5 12 7.5284 12-71.5 12c-66.167 0-67.54-0.0395-69.5-2zm185 0c-1.6667-1.6667-2-3.3333-2-10 0-13.264-7.5284-12 71.5-12s71.5-1.2635 71.5 12 7.5284 12-71.5 12c-66.167 0-67.54-0.0395-69.5-2zm-183.5-64.19c-3.1577-1.7906-3.4684-2.8071-3.4847-11.4-0.0125-6.5851 0.32579-8.4037 1.8134-9.75 1.664-1.5059 7.9653-1.655 69.943-1.655h68.115l1.5567 2.2225c1.0649 1.5203 1.5567 4.5361 1.5567 9.5454 0 6.4416-0.2954 7.6184-2.4546 9.7775l-2.4545 2.4546-66.295-0.0304c-47.531-0.0218-66.862-0.35142-68.295-1.1645zm185 0c-3.1577-1.7906-3.4684-2.8071-3.4847-11.4-0.0125-6.5851 0.32579-8.4037 1.8134-9.75 1.664-1.5059 7.9653-1.655 69.943-1.655h68.115l1.5567 2.2225c1.0649 1.5203 1.5567 4.5361 1.5567 9.5454 0 6.4416-0.2954 7.6184-2.4546 9.7775l-2.4545 2.4546-66.295-0.0304c-47.531-0.0218-66.862-0.35142-68.295-1.1645zm-188.5-62.1l-2.5-1.2646-0.27066-53.471-0.27065-53.471 2.1314-1.75c2.0106-1.6508 11.361-1.75 164.91-1.75s162.9 0.0992 164.91 1.75l2.1314 1.75-0.27065 53.471-0.27066 53.471-2.5 1.2646c-1.9847 1.004-35.787 1.2646-164 1.2646s-162.02-0.26066-164-1.2646zm271.97-22.995c10.123-5.2095 13.75-18.907 7.4164-28.006-2.2992-3.3028-4.9624-5.2237-12.408-8.9493-5.2144-2.6091-10.493-5.8967-11.731-7.3058-6.2538-7.121 1.4955-14.679 12.75-12.435 7.5639 1.5081 8.806 1.2601 10.547-2.1059 0.87892-1.6996 1.3618-3.7059 1.0731-4.4583-0.90634-2.3619-11.308-4.7503-18.258-4.1924-13.538 1.0867-21.713 10.244-19.906 22.296 1.0018 6.6802 5.2956 10.969 16.124 16.104 4.9937 2.3684 9.7678 5.1015 10.609 6.0734 3.7194 4.2973 2.5785 11.302-2.2472 13.798-4.0925 2.1163-13.55 1.8302-18.84-0.57011-2.4194-1.0977-4.6097-1.785-4.8673-1.5274-0.2576 0.25761-0.68844 2.4208-0.95741 4.8071-0.58771 5.2142 0.27296 6.1229 7.796 8.2313 7.2516 2.0323 16.984 1.2843 22.9-1.76zm-214.91 1.2536c1.8275-0.97803 1.936-2.3446 1.9655-24.75l0.0312-23.715 2.3872 4c14.878 24.93 26.392 42.566 28.667 43.91 3.6134 2.1345 6.4707 2.0027 8.8833-0.40988 1.9119-1.9119 2-3.3333 2-32.277 0-25.785-0.23098-30.607-1.5567-32.5-2.2142-3.1612-6.8963-2.987-9.0747 0.33763-1.488 2.271-1.612 5.0096-1.0982 24.25l0.57927 21.69-2.1749-3.8042c-5.1908-9.0795-24.978-40.355-26.559-41.978-2.6562-2.7274-8.7268-3.3801-11.138-1.1975-1.8889 1.7094-1.9774 3.1778-1.9774 32.806 0 27.458 0.18988 31.226 1.655 32.845 1.8561 2.051 4.5268 2.337 7.4108 0.79356zm93.363-0.53625c2.2554-2.2554 1.941-6.0563-0.65108-7.8719-1.7071-1.1957-4.9624-1.5567-14.036-1.5567h-11.814l0.28621-9.75 0.28621-9.75 10.941-0.28577c6.0174-0.15717 11.53-0.77477 12.25-1.3724 0.72015-0.59767 1.3094-2.3265 1.3094-3.8418s-0.58922-3.2441-1.3094-3.8418c-0.72015-0.59767-6.2326-1.2153-12.25-1.3724l-10.93-0.28-0.295-7.9132c-0.21083-5.6553 0.0745-8.1476 1-8.7347 0.71225-0.45183 6.3672-0.82841 12.566-0.83683 10.996-0.0149 11.299-0.0755 12.392-2.4744 0.89722-1.9692 0.78876-2.9652-0.54449-5l-1.6649-2.541h-16.148c-13.623 0-16.434 0.25883-17.977 1.655-1.6968 1.5356-1.8287 3.8932-1.8287 32.671 0 27.458 0.18988 31.226 1.655 32.845 1.478 1.6332 3.4486 1.8287 18.429 1.8287 13.915 0 17.041-0.26777 18.345-1.5714zm32.31-0.82397c1.0363-1.3175 4.2401-11.33 7.1196-22.25 2.8794-10.92 5.6338-20.755 6.1207-21.855 0.88533-2 0.88533-2 0.97562 0 0.2348 5.2009 10.038 42.835 11.611 44.573 2.3167 2.56 7.5851 2.5224 9.9319-0.0709 1.7631-1.9482 18.43-58.37 18.478-62.552 0.0129-1.1275-0.51648-2.59-1.1765-3.25-1.771-1.771-6.5439-1.4577-8.55 0.56114-1.0681 1.0749-3.893 10.231-7.25 23.498-4.9306 19.486-6.9487 25.229-7.0257 19.991-0.0141-0.9625-2.2239-10.952-4.9105-22.198-5.1426-21.527-5.8798-23.052-11.144-23.052-5.1917 0-6.5344 2.449-11.239 20.5-2.437 9.35-4.9877 19.387-5.6684 22.304-0.68065 2.9172-1.5058 5.0358-1.8336 4.708-0.32781-0.32781-1.6227-5.1896-2.8776-10.804-7.8302-35.034-8.4733-36.708-14.101-36.708-3.3168 0-5.2044 1.6189-5.1884 4.45 0.0257 4.5454 14.898 60.792 16.559 62.628 2.5179 2.7823 7.8005 2.5362 10.168-0.47378z"/>
	</g>
</svg>
