<svg xmlns:rdf="http://www.w3.org/1999/02/22-rdf-syntax-ns#" xmlns="http://www.w3.org/2000/svg" height="512" width="512" version="1.1" xmlns:cc="http://creativecommons.org/ns#" xmlns:dc="http://purl.org/dc/elements/1.1/" viewBox="0 0 511.99999 511.99999">
	<g transform="translate(0 -540.36)">
		<path d="m233.41 1051.4c-60.67-5.5-115.39-31-158.48-74-39.513-39.38-64.389-89.28-72.563-145.54-2.4247-16.688-2.4247-54.312 0-71 8.173-56.25 32.956-105.97 72.559-145.57 39.604-39.61 89.324-64.39 145.57-72.56 16.688-2.4247 54.312-2.4247 71 0 77.56 11.269 143.21 54.617 183.67 121.27 17.674 29.117 28.663 59.46 33.995 93.865 3.1185 20.121 3.1185 56.879 0 77-8.5064 54.884-33.128 103.54-72.125 142.54-38.932 38.932-88.496 64.014-142.34 72.032-14.995 2.2328-47.019 3.2621-61.293 1.9702zm0.27655-108.09c1.5828-0.58994 44.078-42.285 97.076-95.25 76.139-76.09 94.572-95.014 95.879-98.433 1.9203-5.0219 1.4943-12.091-1.0514-17.447-0.97123-2.0433-9.6713-11.465-19.57-21.194-16.497-16.213-18.242-17.637-23.474-19.158-4.7643-1.385-6.4684-1.454-10.848-0.43905-5.1099 1.1842-6.3562 2.3621-75.453 71.313l-70.257 70.109-39.243-39.182c-26.585-26.543-40.443-39.68-42.961-40.726-4.8717-2.0239-12.347-1.9222-17.029 0.23169-5.1499 2.3694-38.473 35.585-40.855 40.724-1.0199 2.2-1.8618 5.8-1.8708 8-0.04171 10.182-2.5257 7.3196 65.31 75.269 40.653 40.722 64.588 63.975 67.163 65.249 4.42 2.1883 12.622 2.6335 17.185 0.93272z"/>
	</g>
</svg>
