<svg xmlns:rdf="http://www.w3.org/1999/02/22-rdf-syntax-ns#" xmlns="http://www.w3.org/2000/svg" height="512" width="512" version="1.1" xmlns:cc="http://creativecommons.org/ns#" xmlns:dc="http://purl.org/dc/elements/1.1/" viewBox="0 0 512.00001 512.00001">
	<g transform="translate(0 -540.36)">
		<path d="m32 1051.4c-11.121-3.3951-19.89-12.223-23.035-23.187-0.77543-2.7038-0.64795-2.8781 2.1048-2.8781 3.1249 0 6.9302-3.02 6.9302-5.5 0-2.506-3.8106-5.5-7-5.5h-3v-161.5-161.5h6.3c6.746 0 8.7-1.0396 8.7-4.6286 0-3.8486-2.5771-5.3714-9.0905-5.3714h-5.9476l0.66211-2.75c2.1395-8.82 10.284-18.41 19.2-22.53l4.6757-2.1609h213 213l5.6245 2.7622c7.3565 3.6127 14.006 10.797 16.729 18.076 2.0586 5.5022 2.1465 7.3106 2.1465 44.199v38.462h-14-14v-3.3089c0-3.6135-1.4971-6.0619-4.3055-7.0413-2.6-0.91-6.69 3.51-6.69 7.23v2.9693l-42.25 0.37936c-40.198 0.36093-42.569 0.48534-48.822 2.5614-18.794 6.2399-34.185 23.763-38.416 43.74-2.0903 9.8682-2.1487 87.801-0.0731 97.593 3.8918 18.361 17.34 32.63 36.933 39.186 5.7192 1.9138 9.0196 2.0767 49.379 2.4382l43.25 0.3874v5.7109c0.00001 6.5338 1.9265 10.156 5.4017 10.156 3.9022 0 5.5983-2.9777 5.5983-9.8287v-6.1713h14 14v40.962c0 39.373-0.083 41.187-2.138 46.75-2.9285 7.9274-11.222 16.221-19.149 19.15l-5.7875 2.138-210.71-0.086c-115.89-0.1-211.84-0.5-213.21-0.9zm59.777-27.622c2.5921-1.8156 2.9065-5.6165 0.65108-7.8719-1.3263-1.3263-4.7679-1.5714-22.066-1.5714-12.215 0-21.276 0.4182-22.429 1.0352-1.9563 1.0469-2.6263 5.3828-1.1689 7.5648 1.3462 2.0157 3.6098 2.2416 23.262 2.321 16.146 0.065 19.912-0.1906 21.75-1.4777zm77.223-0.4c1.1-1.1 2-2.675 2-3.5s-0.9-2.4-2-3.5c-1.8685-1.8685-3.3333-2-22.277-2-22.064 0-24.723 0.5913-24.723 5.5 0 4.9086 2.6581 5.5 24.723 5.5 18.944 0 20.409-0.1315 22.277-2zm75.777 0.4433c2.5921-1.8156 2.9065-5.6165 0.65108-7.8719-1.3263-1.3263-4.7679-1.5714-22.066-1.5714-12.215 0-21.276 0.4182-22.429 1.0352-1.9563 1.0469-2.6262 5.3828-1.169 7.5648 1.3462 2.0157 3.6098 2.2416 23.262 2.321 16.146 0.065 19.912-0.1906 21.75-1.4777zm77.22-0.4c1.1-1.1 2-2.675 2-3.5s-0.9-2.4-2-3.5c-1.8685-1.8685-3.3333-2-22.277-2-22.064 0-24.723 0.5913-24.723 5.5 0 4.9086 2.6581 5.5 24.723 5.5 18.944 0 20.409-0.1315 22.277-2zm75.777 0.4433c2.6318-1.8434 2.8721-5.0681 0.56752-7.6146-1.5004-1.6579-3.5621-1.8287-22.066-1.8287-12.157 0-21.193 0.4186-22.345 1.0352-1.9563 1.0469-2.6262 5.3828-1.169 7.5648 1.3462 2.0157 3.6098 2.2416 23.262 2.321 16.146 0.065 19.912-0.1906 21.75-1.4777zm57.22-12.9c0-13.287-0.17156-14.672-2.0512-16.551-2.0482-2.0482-5.1276-1.9606-7.4488 0.21188-0.55 0.51477-1.1559 5.1892-1.3465 10.388l-0.34653 9.4517h-5.681c-6.5692 0-10.126 1.9318-10.126 5.5 0 4.3481 3.2929 5.5 15.723 5.5h11.277v-14.5zm-2.2225-304.06c2.0857-1.4609 2.2225-2.2918 2.2225-13.5v-11.943h-11.929c-9.5108 0-12.247 0.31851-13.5 1.5714-1.8268 1.8268-1.9882 3.7813-0.53625 6.4943 0.86884 1.6234 2.1363 1.9343 7.8872 1.9343h6.852l0.40169 7.109c0.31243 5.5292 0.82444 7.4181 2.304 8.5 2.435 1.7805 3.5612 1.7509 6.2975-0.16572zm-354.35-17.05c1.9772-1.9772 1.9806-3.3994 0.01472-6.2061-1.5261-2.1788-1.9771-2.2225-22.929-2.2225-18.096 0-21.613 0.24089-22.943 1.5714-1.8268 1.8268-1.9882 3.7813-0.53624 6.4943 0.97506 1.8219 2.3067 1.9343 22.929 1.9343 18.57 0 22.132-0.23856 23.465-1.5714zm76.371 0.37c1.6828-1.6828 1.4936-5.3635-0.37143-7.2286-1.3299-1.3299-4.8346-1.5714-22.8-1.5714-22.708 0-23.629 0.19473-23.629 5 0 1.43 0.54 3.14 1.2 3.8 1.7 1.7 43.9 1.7 45.6 0zm75.773 0.43469c2.0731-1.4195 2.4874-4.4936 0.92669-6.8756-1.5445-2.3572-1.5631-2.3591-22.951-2.3591-18.126 0-21.646 0.24074-22.977 1.5714-1.8268 1.8268-1.9882 3.7813-0.53625 6.4943 0.97507 1.8219 2.2962 1.9334 22.75 1.919 11.943-0.008 22.198-0.34592 22.788-0.75zm77.23-0.43c1.6828-1.6828 1.4936-5.3635-0.37143-7.2286-1.3302-1.3302-4.8417-1.5714-22.878-1.5714-15.862 0-21.553 0.31938-22.273 1.25-1.9004 2.4561-2.1044 4.5524-0.64554 6.6352 1.4308 2.0428 2.2214 2.1148 23.225 2.1148 15.578 0 22.084-0.34025 22.943-1.2zm75.773 0.43469c2.0731-1.4195 2.4874-4.4936 0.92669-6.8756-1.5445-2.3572-1.5631-2.3591-22.951-2.3591-18.126 0-21.646 0.24074-22.977 1.5714-1.8268 1.8268-1.9882 3.7813-0.53625 6.4943 0.97507 1.8219 2.2962 1.9334 22.75 1.919 11.943-0.008 22.198-0.34592 22.788-0.75zm-44.797 232.29c-9.512-2.6183-16.627-8.2331-20.936-16.521l-2.3396-4.5v-46.5-46.5l2.6078-5.5601c3.1593-6.7361 10.762-14.55 17.456-17.94l4.9362-2.5 71.75-0.26934 71.75-0.26934v71.019 71.019l-70.25-0.0894c-54.334-0.0692-71.32-0.38402-74.974-1.3898zm49.73-46.47c5.7036-3.1239 10.829-10.455 11.873-16.981 1.6057-10.042-3.9234-20.561-13.309-25.321-16.761-8.5004-36.698 5.1243-34.774 23.764 1.8488 17.913 20.199 27.307 36.211 18.538zm-327.5-248.09c9.1698-3.2559 320.48-87.852 321.01-87.232 0.36407 0.42747 7.0993 18.327 14.967 39.777 7.8678 21.45 15.136 41.138 16.151 43.75l1.8455 4.75-178.24-0.0789c-105.11-0.05-177.21-0.45-175.74-0.97z"/>
	</g>
</svg>
